{
  "development": {
    "username": "root",
    "password": "Code2019",
    "database": "precinct",
    "host": "127.0.0.1",
    "dialect": "mysql",
    "logging": false
  },
  "test": {
    "username": "root",
    "password": null,
    "database": "database_test",
    "host": "127.0.0.1",
    "dialect": "mysql"
  },
  "production": {
    "username": "datamaster",
    "password": "livedata",
    "database": "precinct",
    "host": "adzu.edu.ph",
    "dialect": "mysql"
  }
}
